#FIG 3.2  Produced by xfig version 3.2.5c
Landscape
Center
Metric
A4      
100.00
Single
-2
1200 2
1 2 0 3 0 7 50 -1 -1 0.000 1 0.0000 3825 2272 1125 540 2700 2272 4950 2272
1 2 0 3 0 7 50 -1 -1 0.000 1 0.0000 1350 2272 1125 540 225 2272 2475 2272
1 2 0 3 7 14 50 -1 -1 0.000 1 0.0000 -225 457 900 540 -1125 457 675 457
1 2 0 3 7 14 50 -1 -1 0.000 1 0.0000 5850 457 900 540 4950 457 6750 457
1 2 0 3 7 7 50 -1 -1 0.000 1 0.0000 2340 4068 1350 540 990 4068 3690 4068
1 2 0 3 7 7 50 -1 20 0.000 1 0.0000 5940 -1298 675 540 5265 -1298 6615 -1298
1 2 0 3 0 7 50 -1 -1 0.000 1 0.0000 -1238 2272 1125 540 -2363 2272 -113 2272
1 2 0 3 7 14 50 -1 -1 0.000 1 0.0000 2340 -3143 675 540 1665 -3143 3015 -3143
1 2 0 3 7 7 50 -1 20 0.000 1 0.0000 1440 -1343 675 540 765 -1343 2115 -1343
1 2 0 3 7 7 50 -1 -1 0.000 1 0.0000 -585 -1298 675 540 -1260 -1298 90 -1298
1 2 0 3 7 14 50 -1 -1 0.000 1 0.0000 3825 457 900 540 2925 457 4725 457
1 2 0 3 7 7 50 -1 20 0.000 1 0.0000 3690 -1298 675 540 3015 -1298 4365 -1298
1 2 0 3 0 7 50 -1 -1 0.000 1 0.0000 6420 2272 1125 540 5295 2272 7545 2272
1 2 0 3 7 14 50 -1 -1 0.000 1 0.0000 -2250 457 900 540 -3150 457 -1350 457
1 2 0 3 7 14 50 -1 -1 0.000 1 0.0000 7875 457 900 540 6975 457 8775 457
1 2 0 3 7 14 50 -1 -1 0.000 1 0.0000 1800 457 900 540 900 457 2700 457
2 1 0 3 7 7 50 -1 -1 0.000 0 0 -1 1 0 2
	1 1 5.00 60.00 120.00
	 1755 -2880 -45 -1665
2 1 0 3 7 7 50 -1 -1 0.000 0 0 -1 1 0 2
	1 1 5.00 60.00 120.00
	 1935 -2745 1665 -1845
2 1 0 3 7 7 50 -1 -1 0.000 0 0 -1 1 0 2
	1 1 5.00 60.00 120.00
	 2700 -2700 3375 -1755
2 1 0 3 7 7 50 -1 -1 0.000 0 0 -1 1 0 2
	1 1 5.00 60.00 120.00
	 2925 -2880 5490 -1665
2 1 0 3 7 7 50 -1 -1 0.000 0 0 -1 1 0 2
	1 1 5.00 60.00 120.00
	 -1170 -990 -1935 -45
2 1 0 3 7 7 50 -1 -1 0.000 0 0 -1 1 0 2
	1 1 5.00 60.00 120.00
	 -495 -765 -315 -90
2 1 0 3 7 7 50 -1 -1 0.000 0 0 -1 1 0 2
	1 1 5.00 60.00 120.00
	 -90 -900 1305 0
2 1 0 3 7 7 50 -1 -1 0.000 0 0 -1 1 0 2
	1 1 5.00 60.00 120.00
	 945 -990 -1755 0
2 1 0 3 7 7 50 -1 -1 0.000 0 0 -1 1 0 2
	1 1 5.00 60.00 120.00
	 1845 -945 3060 135
2 1 0 3 7 7 50 -1 -1 0.000 0 0 -1 1 0 2
	1 1 5.00 60.00 120.00
	 3105 -1035 90 -45
2 1 0 3 7 7 50 -1 -1 0.000 0 0 -1 1 0 2
	1 1 5.00 60.00 120.00
	 3735 -765 3780 -90
2 1 0 3 7 7 50 -1 -1 0.000 0 0 -1 1 0 2
	1 1 5.00 60.00 120.00
	 5355 -1035 2070 -90
2 1 0 3 7 7 50 -1 -1 0.000 0 0 -1 1 0 2
	1 1 5.00 60.00 120.00
	 5940 -765 5940 -90
2 1 0 3 7 7 50 -1 -1 0.000 0 0 -1 1 0 2
	1 1 5.00 60.00 120.00
	 6525 -990 7605 -45
2 1 0 3 7 7 50 -1 -1 0.000 0 0 -1 1 0 2
	1 1 5.00 60.00 120.00
	 -2250 990 -1800 1800
2 1 0 3 7 7 50 -1 -1 0.000 0 0 -1 1 0 2
	1 1 5.00 60.00 120.00
	 -495 945 -945 1755
2 1 0 3 7 7 50 -1 -1 0.000 0 0 -1 1 0 2
	1 1 5.00 60.00 120.00
	 -1665 855 855 1800
2 1 0 3 7 7 50 -1 -1 0.000 0 0 -1 1 0 2
	1 1 5.00 60.00 120.00
	 1710 990 1440 1710
2 1 0 3 7 7 50 -1 -1 0.000 0 0 -1 1 0 2
	1 1 5.00 60.00 120.00
	 5220 855 2070 1845
2 1 0 3 7 7 50 -1 -1 0.000 0 0 -1 1 0 2
	1 1 5.00 60.00 120.00
	 495 765 3330 1800
2 1 0 3 7 7 50 -1 -1 0.000 0 0 -1 1 0 2
	1 1 5.00 60.00 120.00
	 2565 765 3555 1755
2 1 0 3 7 7 50 -1 -1 0.000 0 0 -1 1 0 2
	1 1 5.00 60.00 120.00
	 7200 810 4365 1800
2 1 0 3 7 7 50 -1 -1 0.000 0 0 -1 1 0 2
	1 1 5.00 60.00 120.00
	 4455 855 5625 1890
2 1 0 3 7 7 50 -1 -1 0.000 0 0 -1 1 0 2
	1 1 5.00 60.00 120.00
	 5940 990 6300 1755
2 1 0 3 7 7 50 -1 -1 0.000 0 0 -1 1 0 2
	1 1 5.00 60.00 120.00
	 7785 990 7065 1845
2 1 0 3 7 7 50 -1 -1 0.000 0 0 -1 1 0 2
	1 1 5.00 60.00 120.00
	 3060 720 -630 1800
2 1 0 3 7 7 50 -1 -1 0.000 0 0 -1 1 0 2
	1 1 5.00 60.00 120.00
	 -675 2745 1170 3825
2 1 0 3 7 7 50 -1 -1 0.000 0 0 -1 1 0 2
	1 1 5.00 60.00 120.00
	 1485 2790 1845 3555
2 1 0 3 7 7 50 -1 -1 0.000 0 0 -1 1 0 2
	1 1 5.00 60.00 120.00
	 3420 2790 2925 3555
2 1 0 3 7 7 50 -1 -1 0.000 0 0 -1 1 0 2
	1 1 5.00 60.00 120.00
	 5625 2655 3465 3780
2 1 0 3 7 7 50 -1 -1 0.000 0 0 -1 1 0 2
	1 1 5.00 60.00 120.00
	 2025 -1080 5265 45
2 1 0 3 7 7 50 -1 -1 0.000 0 0 -1 1 0 2
	1 1 5.00 60.00 120.00
	 4320 -1125 7335 0
4 0 0 50 -1 0 20 0.0000 6 165 2070 5475 2344 \\{$X_2$, $X_3$, $X_4$\\}\001
4 0 0 50 -1 0 20 0.0000 6 165 2070 450 2344 \\{$X_1$, $X_2$, $X_4$\\}\001
4 0 0 50 -1 0 20 0.0000 6 165 2070 2888 2344 \\{$X_1$, $X_3$, $X_4$\\}\001
4 0 7 50 -1 0 20 0.0000 6 165 2700 1170 4140 \\{$X_1$, $X_2$, $X_3$, $X_4$\\}\001
4 0 7 50 -1 0 20 0.0000 6 165 810 1125 -1260 \\{$X_2$\\}\001
4 0 7 50 -1 0 20 0.0000 6 165 810 3420 -1215 \\{$X_3$\\}\001
4 0 7 50 -1 0 20 0.0000 6 165 810 5670 -1215 \\{$X_4$\\}\001
4 0 7 50 -1 0 20 0.0000 6 165 810 -900 -1215 \\{$X_1$\\}\001
4 0 7 50 -1 0 20 0.0000 6 165 1440 7245 540 \\{$X_3$, $X_4$\\}\001
4 0 7 50 -1 0 20 0.0000 6 165 1440 3195 540 \\{$X_2$, $X_3$\\}\001
4 0 7 50 -1 0 20 0.0000 6 165 1440 -855 540 \\{$X_1$, $X_3$\\}\001
4 0 7 50 -1 0 20 0.0000 6 165 1440 1170 540 \\{$X_1$, $X_4$\\}\001
4 0 7 50 -1 0 20 0.0000 6 165 1440 -2880 540 \\{$X_1$, $X_2$\\}\001
4 0 7 50 -1 0 20 0.0000 6 165 1440 5220 540 \\{$X_2$, $X_4$\\}\001
4 0 0 50 -1 0 20 0.0000 6 165 2070 -2183 2344 \\{$X_1$, $X_2$, $X_3$\\}\001
4 0 7 50 -1 0 20 0.0000 6 165 990 2295 -3060 $\\emptyset$\001
