#FIG 3.2  Produced by xfig version 3.2.5c
Landscape
Center
Metric
A4      
100.00
Single
-2
1200 2
1 2 0 3 0 -1 50 -1 5 0.000 1 0.0000 0 450 900 540 -900 450 900 450
1 2 0 3 0 -1 50 -1 5 0.000 1 0.0000 2250 450 900 540 1350 450 3150 450
1 2 0 3 0 -1 50 -1 5 0.000 1 0.0000 -2250 450 900 540 -3150 450 -1350 450
1 2 0 3 0 0 50 -1 15 0.000 1 0.0000 0 4950 900 540 -900 4950 900 4950
1 2 0 3 0 0 50 -1 15 0.000 1 0.0000 2250 4950 900 540 1350 4950 3150 4950
1 2 0 3 0 0 50 -1 15 0.000 1 0.0000 -2250 4950 900 540 -3150 4950 -1350 4950
1 2 0 3 0 0 50 -1 10 0.000 1 0.0000 0 2700 900 540 -900 2700 900 2700
1 2 0 3 0 0 50 -1 10 0.000 1 0.0000 2250 2700 900 540 1350 2700 3150 2700
1 2 0 3 0 0 50 -1 10 0.000 1 0.0000 -2250 2700 900 540 -3150 2700 -1350 2700
2 2 0 3 0 7 50 -1 -1 0.000 0 0 -1 0 0 5
	 -3375 -405 3690 -405 3690 1395 -3375 1395 -3375 -405
2 2 0 3 0 7 50 -1 -1 0.000 0 0 -1 0 0 5
	 -3375 4095 3690 4095 3690 5895 -3375 5895 -3375 4095
2 2 0 3 -1 7 50 -1 -1 0.000 0 0 -1 0 0 5
	 -3375 1845 3690 1845 3690 3645 -3375 3645 -3375 1845
4 0 0 50 -1 0 20 0.0000 6 165 1440 -630 360 \\{$X_1$, $X_3$\\}\001
4 0 0 50 -1 0 20 0.0000 6 165 1440 1620 360 \\{$X_1$, $X_4$\\}\001
4 0 0 50 -1 0 20 0.0000 4 135 540 2880 1170 File 1\001
4 0 0 50 -1 0 20 0.0000 6 165 1440 -2880 360 \\{$X_1$, $X_2$\\}\001
4 0 0 50 -1 0 20 0.0000 6 135 540 -2700 765 $f=14$\001
4 0 0 50 -1 0 20 0.0000 6 135 540 -450 720 $f=18$\001
4 0 0 50 -1 0 20 0.0000 6 135 540 1800 720 $f=16$\001
4 0 0 50 -1 0 20 0.0000 6 165 1440 -630 2610 \\{$X_2$, $X_3$\\}\001
4 0 0 50 -1 0 20 0.0000 6 165 1440 1620 2610 \\{$X_2$, $X_4$\\}\001
4 0 0 50 -1 0 20 0.0000 4 135 540 2880 3420 File 2\001
4 0 0 50 -1 0 20 0.0000 6 165 1440 -2880 2610 \\{$X_1$, $X_2$\\}\001
4 0 0 50 -1 0 20 0.0000 6 135 540 -2700 3015 $f=12$\001
4 0 0 50 -1 0 20 0.0000 6 135 540 -450 2970 $f=13$\001
4 0 0 50 -1 0 20 0.0000 6 135 540 1800 2970 $f=18$\001
4 0 0 50 -1 0 20 0.0000 6 165 1440 -630 4860 \\{$X_2$, $X_3$\\}\001
4 0 0 50 -1 0 20 0.0000 6 165 1440 1620 4860 \\{$X_3$, $X_4$\\}\001
4 0 0 50 -1 0 20 0.0000 4 135 540 2880 5670 File 3\001
4 0 0 50 -1 0 20 0.0000 6 165 1440 -2880 4860 \\{$X_1$, $X_3$\\}\001
4 0 0 50 -1 0 20 0.0000 6 135 540 -2700 5265 $f=19$\001
4 0 0 50 -1 0 20 0.0000 6 135 540 -450 5220 $f=15$\001
4 0 0 50 -1 0 20 0.0000 6 135 540 1800 5220 $f=17$\001
